{
	"info": {
		"_postman_id": "5d7b9ebc-1458-408f-9cc8-4038694ef432",
		"name": "Streamloots-challenge",
		"schema": "https://schema.getpostman.com/json/collection/v2.1.0/collection.json"
	},
	"item": [
		{
			"name": "Get Cards (owner)",
			"request": {
				"auth": {
					"type": "bearer",
					"bearer": [
						{
							"key": "token",
							"value": "eyJhbGciOiJIUzI1NiIsInR5cCI6IkpXVCJ9.eyJpc3MiOiJzdHJlYW1sb290cy5jb20iLCJ1c2VySWQiOiI1YTUwMTU5MzA4ZjVhODAwMTExZGU3NTkiLCJpYXQiOjE1MTYyMzkwMjJ9.mj8-t--lfImQGg8HoA_9XOvDlunl3YJoPttkIbOHNMU",
							"type": "string"
						}
					]
				},
				"method": "GET",
				"header": [],
				"url": {
					"raw": "localhost:3002/api/v1/cards",
					"host": [
						"localhost"
					],
					"port": "3002",
					"path": [
						"api",
						"v1",
						"cards"
					]
				}
			},
			"response": []
		},
		{
			"name": "Get Cards (user)",
			"request": {
				"auth": {
					"type": "bearer",
					"bearer": [
						{
							"key": "token",
							"value": "eyJhbGciOiJIUzI1NiIsInR5cCI6IkpXVCJ9.eyJpc3MiOiJzdHJlYW1sb290cy5jb20iLCJ1c2VySWQiOiI1YTUwMTU5MzA4ZjVhODAwMTExZGU3NTAiLCJpYXQiOjE1MTYyMzkwMjJ9.ArXF6iD5tX0DkKiS0EG3y30Bl3g_E8iLPkk98hJw0Pc",
							"type": "string"
						}
					]
				},
				"method": "GET",
				"header": [],
				"url": {
					"raw": "localhost:3002/api/v1/cards",
					"host": [
						"localhost"
					],
					"port": "3002",
					"path": [
						"api",
						"v1",
						"cards"
					]
				}
			},
			"response": []
		},
		{
			"name": "Update Card",
			"request": {
				"auth": {
					"type": "bearer",
					"bearer": [
						{
							"key": "token",
							"value": "eyJhbGciOiJIUzI1NiIsInR5cCI6IkpXVCJ9.eyJpc3MiOiJzdHJlYW1sb290cy5jb20iLCJ1c2VySWQiOiI1YTUwMTU5MzA4ZjVhODAwMTExZGU3NTkiLCJpYXQiOjE1MTYyMzkwMjJ9.mj8-t--lfImQGg8HoA_9XOvDlunl3YJoPttkIbOHNMU",
							"type": "string"
						}
					]
				},
				"method": "PUT",
				"header": [],
				"body": {
					"mode": "raw",
					"raw": "{\r\n        \"id\": \"61ec4c3de3589c659b4f1dc5\",\r\n        \"status\": \"published\",\r\n        \"name\": \"card1\",\r\n        \"image\": \"image\",\r\n        \"rarity\": \"rarity\",\r\n        \"cardType\": {\r\n            \"type\": \"limited\",\r\n            \"availableCards\": 10\r\n        }\r\n    }",
					"options": {
						"raw": {
							"language": "json"
						}
					}
				},
				"url": {
					"raw": "localhost:3002/api/v1/cards/61ec4c3de3589c659b4f1dc5",
					"host": [
						"localhost"
					],
					"port": "3002",
					"path": [
						"api",
						"v1",
						"cards",
						"61ec4c3de3589c659b4f1dc5"
					]
				}
			},
			"response": []
		},
		{
			"name": "Unpublish cards (BULK)",
			"request": {
				"auth": {
					"type": "bearer",
					"bearer": [
						{
							"key": "token",
							"value": "eyJhbGciOiJIUzI1NiIsInR5cCI6IkpXVCJ9.eyJpc3MiOiJzdHJlYW1sb290cy5jb20iLCJ1c2VySWQiOiI1YTUwMTU5MzA4ZjVhODAwMTExZGU3NTkiLCJpYXQiOjE1MTYyMzkwMjJ9.mj8-t--lfImQGg8HoA_9XOvDlunl3YJoPttkIbOHNMU",
							"type": "string"
						}
					]
				},
				"method": "PUT",
				"header": [],
				"body": {
					"mode": "raw",
					"raw": "{\r\n    \"cards\": [\r\n        \"61ec4c3de3589c659b4f1dc5\" \r\n    ]\r\n}",
					"options": {
						"raw": {
							"language": "json"
						}
					}
				},
				"url": {
					"raw": "localhost:3002/api/v1/cards/unpublish",
					"host": [
						"localhost"
					],
					"port": "3002",
					"path": [
						"api",
						"v1",
						"cards",
						"unpublish"
					]
				}
			},
			"response": []
		},
		{
			"name": "Publish cards (BULK)",
			"request": {
				"auth": {
					"type": "bearer",
					"bearer": [
						{
							"key": "token",
							"value": "eyJhbGciOiJIUzI1NiIsInR5cCI6IkpXVCJ9.eyJpc3MiOiJzdHJlYW1sb290cy5jb20iLCJ1c2VySWQiOiI1YTUwMTU5MzA4ZjVhODAwMTExZGU3NTkiLCJpYXQiOjE1MTYyMzkwMjJ9.mj8-t--lfImQGg8HoA_9XOvDlunl3YJoPttkIbOHNMU",
							"type": "string"
						}
					]
				},
				"method": "PUT",
				"header": [],
				"body": {
					"mode": "raw",
					"raw": "{\r\n    \"cards\": [\r\n        \"61ec4c3de3589c659b4f1dc5\",\r\n        \"61ec4ed081bfe1f9564b7432\"\r\n    ]\r\n}",
					"options": {
						"raw": {
							"language": "json"
						}
					}
				},
				"url": {
					"raw": "localhost:3002/api/v1/cards/publish",
					"host": [
						"localhost"
					],
					"port": "3002",
					"path": [
						"api",
						"v1",
						"cards",
						"publish"
					]
				}
			},
			"response": []
		}
	]
}